rtl/bu/barret_reduction/tb_barrett_reduction.vcd
$date
	Wed Oct 11 13:26:06 2023
$end

$version
	Synopsys VCS version O-2018.09-SP2-2_Full64
$end

$timescale
	1ps
$end

$comment Csum: 1 0d867917dd19c57b $end


$scope module tb_barrett_reduction $end
$var reg 32 ! c [31:0] $end
$var wire 16 " result [15:0] $end
$var reg 32 # expected_result [31:0] $end
$var integer 32 $ input_file $end
$var integer 32 % output_file $end

$scope begin unnamed$$_0 $end
$upscope $end


$scope module dut $end
$var wire 32 & c [31:0] $end
$var wire 16 " result [15:0] $end
$var wire 64 ' c_mu [63:0] $end
$var wire 32 ( c_mu_l [31:0] $end
$var wire 32 ) floor_c_mu_q [31:0] $end
$var wire 16 * result_temp [15:0] $end
$upscope $end

$upscope $end

$enddefinitions $end

#0
$dumpvars
b00010010000101010011010100100100 !
b0000000000000001011000111111110001011110001010001001100010111100 '
b00000000000000010110001111111100 (
b00010010000101010011010100100100 &
bxxxxxxxxxxxxxxxxxxxxxxxxxxxxxxxx #
b00010010000101010010111111111100 )
b10000000000000000000000000000011 $
b10000000000000000000000000000100 %
b0000010100101000 "
b0000010100101000 *
$end
#10
b00000000000000000000010100101000 #
b11000000100010010101111010000001 !
b11000000100010010101111010000001 &
b0000000000001110110011100101100110001101010111111011110100110111 '
b00000000000011101100111001011001 (
b11000000100010010101001101011001 )
b0000101100101000 *
b0000101100101000 "
#20
b00000000000000000000101100101000 #
b10000100100001001101011000001001 !
b10000100100001001101011000001001 &
b0000000000001010001100001101000101101011111100000010011101101111 '
b00000000000010100011000011010001 (
b10000100100001001100110111010001 )
b0000100000111000 *
b0000100000111000 "
#30
b00000000000000000000100000111000 #
b10110001111100000101011001100011 !
b10110001111100000101011001100011 &
b0000000000001101101011101111100011100111001101000110110111000101 '
b00000000000011011010111011111000 (
b10110001111100000100011011111000 )
b0000111101101011 *
b0000001001101010 "
#40
b00000000000000000000001001101010 #
b00000110101110010111101100001101 !
b00000110101110010111101100001101 &
b0000000000000000100001000110000110111011101010111101100101001011 '
b00000000000000001000010001100001 (
b00000110101110010111000101100001 )
b0000100110101100 *
b0000100110101100 "
#50
b00000000000000000000100110101100 #
b01000110110111111001100110001101 !
b01000110110111111001100110001101 &
b0000000000000101011100110011110111101001010001010010011011001011 '
b00000000000001010111001100111101 (
b01000110110111111000110000111101 )
b0000110101010000 *
b0000000001001111 "
#60
b00000000000000000000000001001111 #
b10110010110000101000010001100101 !
b10110010110000101000010001100101 &
b0000000000001101101111110010001010010101000011001010111100110011 '
b00000000000011011011111100100010 (
b10110010110000100111100100100010 )
b0000101101000011 *
b0000101101000011 "
#70
b00000000000000000000101101000011 #
b10001001001101110101001000010010 !
b10001001001101110101001000010010 &
b0000000000001010100011010100100111111110111110111111100011011110 '
b00000000000010101000110101001001 (
b10001001001101110100001001001001 )
b0000111111001001 *
b0000001011001000 "
#80
b00000000000000000000001011001000 #
b00000000111100111110001100000001 !
b00000000111100111110001100000001 &
b0000000000000000000100101100000100111111100101111111010010110111 '
b00000000000000000001001011000001 (
b00000000111100111101111111000001 )
b0000001101000000 *
b0000001101000000 "
#90
b00000000000000000000001101000000 #
b00000110110101111100110100001101 !
b00000110110101111100110100001101 &
b0000000000000000100001101011011010100001011001100111011101001011 '
b00000000000000001000011010110110 (
b00000110110101111100010010110110 )
b0000100001010111 *
b0000100001010111 "
#100
b00000000000000000000100001010111 #
b00111011001000111111000101110110 !
b00111011001000111111000101110110 &
b0000000000000100100011000100001011000100100000110100010101011010 '
b00000000000001001000110001000010 (
b00111011001000111110011001000010 )
b0000101100110100 *
b0000101100110100 "
#110
b00000000000000000000101100110100 #
b00011110100011011100110100111101 !
b00011110100011011100110100111101 &
b0000000000000010010110010111111100000010001100010110100110011011 '
b00000000000000100101100101111111 (
b00011110100011011100110001111111 )
b0000000010111110 *
b0000000010111110 "
#120
b00000000000000000000000010111110 #
b01110110110101000101011111101101 !
b01110110110101000101011111101101 &
b0000000000001001001000110101001010100000011111001101110101101011 '
b00000000000010010010001101010010 (
b01110110110101000100110101010010 )
b0000101010011011 *
b0000101010011011 "
#130
b00000000000000000000101010011011 #
b01000110001011011111011110001100 !
b01000110001011011111011110001100 &
b0000000000000101011001011001010011110110011110001010100100010100 '
b00000000000001010110010110010100 (
b01000110001011011110100110010100 )
b0000110111111000 *
b0000000011110111 "
#140
b00000000000000000000000011110111 #
b01111100111111011110100111111001 !
b01111100111111011110100111111001 &
b0000000000001001100111001010001101001001111011100111011111111111 '
b00000000000010011001110010100011 (
b01111100111111011110001110100011 )
b0000011001010110 *
b0000011001010110 "
#150
b00000000000000000000011001010110 #
b11100011001101110010010011000110 !
b11100011001101110010010011000110 &
b0000000000010001011110010000110011011001010000001010001110001010 '
b00000000000100010111100100001100 (
b11100011001101110001010100001100 )
b0000111110111010 *
b0000001010111001 "
#160
b00000000000000000000001010111001 #
b11100010111101111000010011000101 !
b11100010111101111000010011000101 &
b0000000000010001011101000010100001001101010100011001001111010011 '
b00000000000100010111010000101000 (
b11100010111101110111110000101000 )
b0000100010011101 *
b0000100010011101 "
#170
b00000000000000000000100010011101 #
b11010101000100111101001010101010 !
b11010101000100111101001010101010 &
b0000000000010000011000101011100110000000110010111100110110000110 '
b00000000000100000110001010111001 (
b11010101000100111100011110111001 )
b0000101011110001 *
b0000101011110001 "
#180
b00000000000000000000101011110001 #
b01110010101011111111011111100101 !
b01110010101011111111011111100101 &
b0000000000001000110100011100011110101100001111101011111110110011 '
b00000000000010001101000111000111 (
b01110010101011111110110011000111 )
b0000101100011110 *
b0000101100011110 "
#190
b00000000000000000000101100011110 #
b10111011110100100111001001110111 !
b10111011110100100111001001110111 &
b0000000000001110011100011000100110011110100001000010110000010001 '
b00000000000011100111000110001001 (
b10111011110100100110011010001001 )
b0000101111101110 *
b0000101111101110 "
#200
b00000000000000000000101111101110 #
b10001001001100101101011000010010 !
b10001001001100101101011000010010 &
b0000000000001010100011001111000110110111000000110101010011011110 '
b00000000000010101000110011110001 (
b10001001001100101100100111110001 )
b0000110000100001 *
b0000110000100001 "
#210
b00000000000000000000110000100001 #
b01000111111011001101101110001111 !
b01000111111011001101101110001111 &
b0000000000000101100001111111001010100000000001001011010000111001 '
b00000000000001011000011111110010 (
b01000111111011001101000111110010 )
b0000100110011101 *
b0000100110011101 "
#220
b00000000000000000000100110011101 #
b01111001001100000110100111110010 !
b01111001001100000110100111110010 &
b0000000000001001010100011100011010010110111111100010100111111110 '
b00000000000010010101000111000110 (
b01111001001100000101111111000110 )
b0000101000101100 *
b0000101000101100 "
#230
b00000000000000000000101000101100 #
b11100111011101101001011011001110 !
b11100111011101101001011011001110 &
b0000000000010001110011001010110010111000001001101001111101000010 '
b00000000000100011100110010101100 (
b11100111011101101000100010101100 )
b0000111000100010 *
b0000000100100001 "
#240
b00000000000000000000000100100001 #
b11110100000000000111101011101000 !
b11110100000000000111101011101000 &
b0000000000010010110000111000001111011111100101000111001111011000 '
b00000000000100101100001110000011 (
b11110100000000000110101010000011 )
b0001000001100101 *
b0000001101100100 "
#250
b00000000000000000000001101100100 #
b11100010110010100100111011000101 !
b11100010110010100100111011000101 &
b0000000000010001011100001010111001000011000101011111100111010011 '
b00000000000100010111000010101110 (
b11100010110010100100011010101110 )
b0000100000010111 *
b0000100000010111 "
#260
b00000000000000000000100000010111 #
b00101110010110000100100101011100 !
b00101110010110000100100101011100 &
b0000000000000011100100000101110011101101000101100101010011000100 '
b00000000000000111001000001011100 (
b00101110010110000011110001011100 )
b0000110100000000 *
b0000110100000000 "
#270
b00000000000000000000110100000000 #
b11011110100011100010100010111101 !
b11011110100011100010100010111101 &
b0000000000010001000111010100111101001011011111110101001000011011 '
b00000000000100010001110101001111 (
b11011110100011100010000001001111 )
b0000100001101110 *
b0000100001101110 "
#280
b00000000000000000000100001101110 #
b10010110101010110101100000101101 !
b10010110101010110101100000101101 &
b0000000000001011100101100010001001100001000110011100101100101011 '
b00000000000010111001011000100010 (
b10010110101010110101000000100010 )
b0000100000001011 *
b0000100000001011 "
#290
b00000000000000000000100000001011 #
b10110010101001110010011001100101 !
b10110010101001110010011001100101 &
b0000000000001101101111010000011111010010001110100111110100110011 '
b00000000000011011011110100000111 (
b10110010101001110001100000000111 )
b0000111001011110 *
b0000000101011101 "
#300
b00000000000000000000000101011101 #
b10110001111011110110001001100011 !
b10110001111011110110001001100011 &
b0000000000001101101011101110011000100011101110100000000111000101 '
b00000000000011011010111011100110 (
b10110001111011110101110011100110 )
b0000010101111101 *
b0000010101111101 "
#310
b00000000000000000000010101111101 #
b00000101011100111000011100001010 !
b00000101011100111000011100001010 &
b0000000000000000011010110101000011100100101000110101111000100110 '
b00000000000000000110101101010000 (
b00000101011100110111101101010000 )
b0000101110111010 *
b0000101110111010 "
#320
b00000000000000000000101110111010 #
b11000000001110110010001010000000 !
b11000000001110110010001010000000 &
b0000000000001110110010000101010101100110010110110010100110000000 '
b00000000000011101100100001010101 (
b11000000001110110001100101010101 )
b0000100100101011 *
b0000100100101011 "
#330
b00000000000000000000100100101011 #
b00010000011001000010000100100000 !
b00010000011001000010000100100000 &
b0000000000000001010000101010111010011111100110001000110111100000 '
b00000000000000010100001010101110 (
b00010000011001000001100010101110 )
b0000100001110010 *
b0000100001110010 "
#340
b00000000000000000000100001110010 #
b01010101011110000100010110101010 !
b01010101011110000100010110101010 &
b0000000000000110100100101001011101111100001101110000001010000110 '
b00000000000001101001001010010111 (
b01010101011110000011110110010111 )
b0000100000010011 *
b0000100000010011 "
#350
b00000000000000000000100000010011 #
b11001110110011001100110010011101 !
b11001110110011001100110010011101 &
b0000000000001111111001110010010100000011111011001001011100111011 '
b00000000000011111110011100100101 (
b11001110110011001100100000100101 )
b0000010001111000 *
b0000010001111000 "
#360
b00000000000000000000010001111000 #
b11001011001000000011111010010110 !
b11001011001000000011111010010110 &
b0000000000001111100111101101000011100011111101110100011100111010 '
b00000000000011111001111011010000 (
b11001011001000000010111011010000 )
b0000111111000110 *
b0000001011000101 "
#370
b00000000000000000000001011000101 #
b10001001100000111011100000010011 !
b10001001100000111011100000010011 &
b0000000000001010100100110010101000000001011001101001001010010101 '
b00000000000010101001001100101010 (
b10001001100000111011010100101010 )
b0000001011101001 *
b0000001011101001 "
#380
b00000000000000000000001011101001 #
b10000110101111000011100000001101 !
b10000110101111000011100000001101 &
b0000000000001010010111000111001100100011110100111111010001001011 '
b00000000000010100101110001110011 (
b10000110101111000011001101110011 )
b0000010010011010 *
b0000010010011010 "
#390
b00000000000000000000010010011010 #
b10101001101001111101011001010011 !
b10101001101001111101011001010011 &
b0000000000001101000010111110011111101010101001011111001001010101 '
b00000000000011010000101111100111 (
b10101001101001111100011011100111 )
b0000111101101100 *
b0000001001101011 "
#400
b00000000000000000000001001101011 #
b00110101100111111101110101101011 !
b00110101100111111101110101101011 &
b0000000000000100000111111010110000001100100101000110110001111101 '
b00000000000001000001111110101100 (
b00110101100111111101101110101100 )
b0000000110111111 *
b0000000110111111 "
#410
b00000000000000000000000110111111 #
b11101010101001100010101011010101 !
b11101010101001100010101011010101 &
b0000000000010010000010110110010010000001110111110011100101000011 '
b00000000000100100000101101100100 (
b11101010101001100001111101100100 )
b0000101101110001 *
b0000101101110001 "
#420
b00000000000000000000101101110001 #
b10000001000101110100101000000010 !
b10000001000101110100101000000010 &
b0000000000001001111011010101010110110001011000110100010101101110 '
b00000000000010011110110101010101 (
b10000001000101110011111001010101 )
b0000101110101101 *
b0000101110101101 "
#430
b00000000000000000000101110101101 #
b11010111010101100011111010101110 !
b11010111010101100011111010101110 &
b0000000000010000100011110011010010001010011010011100000001100010 '
b00000000000100001000111100110100 (
b11010111010101100011001100110100 )
b0000101101111010 *
b0000101101111010 "
#440
b00000000000000000000101101111010 #
b00001110111111111110100100011101 !
b00001110111111111110100100011101 &
b0000000000000001001001110100100111110110011100010111011010111011 '
b00000000000000010010011101001001 (
b00001110111111111101110001001001 )
b0000110011010100 *
b0000110011010100 "
#450
b00000000000000000000110011010100 #
b11100111110001010111001011001111 !
b11100111110001010111001011001111 &
b0000000000010001110100101011110100101100111111011001001011111001 '
b00000000000100011101001010111101 (
b11100111110001010110101110111101 )
b0000011100010010 *
b0000011100010010 "
#460
b00000000000000000000011100010010 #
b00010001100001000100100100100011 !
b00010001100001000100100100100011 &
b0000000000000001010110001101011101100001001010000011010100000101 '
b00000000000000010101100011010111 (
b00010001100001000100001111010111 )
b0000010101001100 *
b0000010101001100 "
#470
b00000000000000000000010101001100 #
b00000101000010010110010100001010 !
b00000101000010010110010100001010 &
b0000000000000000011000110010011110000101100001110001000000100110 '
b00000000000000000110001100100111 (
b00000101000010010101111000100111 )
b0000011011100011 *
b0000011011100011 "
#480
b00000000000000000000011011100011 #
b11100101011100110000101011001010 !
b11100101011100110000101011001010 &
b0000000000010001101001010000011101110110100110101100110001100110 '
b00000000000100011010010100000111 (
b11100101011100110000000000000111 )
b0000101011000011 *
b0000101011000011 "
#490
b00000000000000000000101011000011 #
b10011110001100010100110000111100 !
b10011110001100010100110000111100 &
b0000000000001100001010100011110101110000110011101000001011100100 '
b00000000000011000010101000111101 (
b10011110001100010100001100111101 )
b0000100011111111 *
b0000100011111111 "
#500
b00000000000000000000100011111111 #
b01111001011010001011110111110010 !
b01111001011010001011110111110010 &
b0000000000001001010101100001101101111100101011100011010111111110 '
b00000000000010010101011000011011 (
b01111001011010001011010100011011 )
b0000100011010111 *
b0000100011010111 "
#510
b00000000000000000000100011010111 #
b01000101001011100110000110001010 !
b01000101001011100110000110001010 &
b0000000000000101010100011110110101100110000100110000111110100110 '
b00000000000001010101000111101101 (
b01000101001011100101101011101101 )
b0000011010011101 *
b0000011010011101 "
#520
b00000000000000000000011010011101 #
b00100000110001001011001101000001 !
b00100000110001001011001101000001 &
b0000000000000010100001010001011100110000111110001001001001110111 '
b00000000000000101000010100010111 (
b00100000110001001011000000010111 )
b0000001100101010 *
b0000001100101010 "
#530
b00000000000000000000001100101010 #
b11101100010010110011010011011000 !
b11101100010010110011010011011000 &
b0000000000010010001010111100010100111110111010100110111001101000 '
b00000000000100100010101111000101 (
b11101100010010110010110011000101 )
b0000100000010011 *
b0000100000010011 "
#540
b00000000000000000000100000010011 #
b00111100001000001111001101111000 !
b00111100001000001111001101111000 &
b0000000000000100100111111011011110010011111001010001001011001000 '
b00000000000001001001111110110111 (
b00111100001000001110101010110111 )
b0000100011000001 *
b0000100011000001 "
#550
b00000000000000000000100011000001 #
b11000100100010100001001010001001 !
b11000100100010100001001010001001 &
b0000000000001111000111010010011001000001100010011110011011101111 '
b00000000000011110001110100100110 (
b11000100100010100000101100100110 )
b0000011101100011 *
b0000011101100011 "
#560
b00000000000000000000011101100011 #
b01110101110001010000110111101011 !
b01110101110001010000110111101011 &
b0000000000001001000011100111010111101100110100011001011111111101 '
b00000000000010010000111001110101 (
b01110101110001001111111101110101 )
b0000111001110110 *
b0000000101110101 "
#570
b00000000000000000000000101110101 #
b01011011000000100110010110110110 !
b01011011000000100110010110110110 &
b0000000000000110111111111010010100111110110000000001111100011010 '
b00000000000001101111111110100101 (
b01011011000000100110000010100101 )
b0000010100010001 *
b0000010100010001 "
#580
b00000000000000000000010100010001 #
b01100011010010111111100111000110 !
b01100011010010111111100111000110 &
b0000000000000111101000101100101101110100101111111110011010001010 '
b00000000000001111010001011001011 (
b01100011010010111111000111001011 )
b0000011111111011 *
b0000011111111011 "
#590
b00000000000000000000011111111011 #
b01010111000101010001001110101110 !
b01010111000101010001001110101110 &
b0000000000000110101100100101011000011110011011110000001101100010 '
b00000000000001101011001001010110 (
b01010111000101010001000001010110 )
b0000001101011000 *
b0000001101011000 "
#600
b00000000000000000000001101011000 #
b11011110011101010000001010111100 !
b11011110011101010000001010111100 &
b0000000000010001000110110110000000110110011101110111100001100100 '
b00000000000100010001101101100000 (
b11011110011101001111101101100000 )
b0000011101011100 *
b0000011101011100 "
#610
b00000000000000000000011101011100 #
b00010101000011111101110100101010 !
b00010101000011111101110100101010 &
b0000000000000001100111101010001001010000101001001100111100000110 '
b00000000000000011001111010100010 (
b00010101000011111101100010100010 )
b0000010010001000 *
b0000010010001000 "
#620
b00000000000000000000010010001000 #
b10000101110101111001101000001011 !
b10000101110101111001101000001011 &
b0000000000001010010010101101111001111110001111011010001011011101 '
b00000000000010100100101011011110 (
b10000101110101111001000011011110 )
b0000100100101101 *
b0000100100101101 "
#630
b00000000000000000000100100101101 #
b10111000100101111011111001110001 !
b10111000100101111011111001110001 &
b0000000000001110001100011111011011010010000010110110000111000111 '
b00000000000011100011000111110110 (
b10111000100101111010111111110110 )
b0000111001111011 *
b0000000101111010 "
#640
b00000000000000000000000101111010 #
b01000010111100100100000110000101 !
b01000010111100100100000110000101 &
b0000000000000101001001011110111001010010110101011100000100010011 '
b00000000000001010010010111101110 (
b01000010111100100011101111101110 )
b0000010110010111 *
b0000010110010111 "
#650
b00000000000000000000010110010111 #
b00100111111100100101010101001111 !
b00100111111100100101010101001111 &
b0000000000000011000100100110011110001011011010001111110001111001 '
b00000000000000110001001001100111 (
b00100111111100100100110101100111 )
b0000011111101000 *
b0000011111101000 "
#660
b00000000000000000000011111101000 #
b10011101110011000110000000111011 !
b10011101110011000110000000111011 &
b0000000000001100001000100111101010100111010000100001111100101101 '
b00000000000011000010001001111010 (
b10011101110011000101010001111010 )
b0000101111000001 *
b0000101111000001 "
#670
b00000000000000000000101111000001 #
b00011101000001100011001100111010 !
b00011101000001100011001100111010 &
b0000000000000010001110110110000111001001110000010100010001110110 '
b00000000000000100011101101100001 (
b00011101000001100010100001100001 )
b0000101011011001 *
b0000101011011001 "
#680
b00000000000000000000101011011001 #
b10111111001000110011001001111110 !
b10111111001000110011001001111110 &
b0000000000001110101100101100111001110001000001110011101000010010 '
b00000000000011101011001011001110 (
b10111111001000110010100011001110 )
b0000100110110000 *
b0000100110110000 "
#690
b00000000000000000000100110110000 #
b00001010101010100100101100010101 !
b00001010101010100100101100010101 &
b0000000000000000110100011111010110011011100111100000011100000011 '
b00000000000000001101000111110101 (
b00001010101010100100001011110101 )
b0000100000100000 *
b0000100000100000 "
#700
b00000000000000000000100000100000 #
b01111000110110011001101111110001 !
b01111000110110011001101111110001 &
b0000000000001001010010110001100110111000000010110011100001000111 '
b00000000000010010100101100011001 (
b01111000110110011001000000011001 )
b0000101111011000 *
b0000101111011000 "
#710
b00000000000000000000101111011000 #
b01101100100111000100101111011001 !
b01101100100111000100101111011001 &
b0000000000001000010110100010011000011100101011101000111100011111 '
b00000000000010000101101000100110 (
b01101100100111000100100000100110 )
b0000001110110011 *
b0000001110110011 "
#720
b00000000000000000000001110110011 #
b00110001001000110000011101100010 !
b00110001001000110000011101100010 &
b0000000000000011110001110101001110011110010111000100010100001110 '
b00000000000000111100011101010011 (
b00110001001000101111111001010011 )
b0000100100001111 *
b0000100100001111 "
#730
b00000000000000000000100100001111 #
b00100110001101011111101101001100 !
b00100110001101011111101101001100 &
b0000000000000010111100000011101111011110000000111001011101010100 '
b00000000000000101111000000111011 (
b00100110001101011110111100111011 )
b0000110000010001 *
b0000110000010001 "
#740
b00000000000000000000110000010001 #
b01001111101000010101010110011111 !
b01001111101000010101010110011111 &
b0000000000000110000111111010000110010000101010001110010110101001 '
b00000000000001100001111110100001 (
b01001111101000010100110010100001 )
b0000100011111110 *
b0000100011111110 "
#750
b00000000000000000000100011111110 #
b01000111101110011010000110001111 !
b01000111101110011010000110001111 &
b0000000000000101100001000000001000101000110000000011111000111001 '
b00000000000001011000010000000010 (
b01000111101110011001111000000010 )
b0000001110001101 *
b0000001110001101 "
#760
b00000000000000000000001110001101 #
b01111100011011011010100111111000 !
b01111100011011011010100111111000 &
b0000000000001001100100011000101110000110111111010000100001001000 '
b00000000000010011001000110001011 (
b01111100011011011010000010001011 )
b0000100101101101 *
b0000100101101101 "
#770
b00000000000000000000100101101101 #
b11011011110011010110000010110111 !
b11011011110011010110000010110111 &
b0000000000010000111001110001110010110010100000100011101111010001 '
b00000000000100001110011100011100 (
b11011011110011010101001100011100 )
b0000110110011011 *
b0000000010011010 "
#780
b00000000000000000000000010011010 #
b11001111110001000101011010011111 !
b11001111110001000101011010011111 &
b0000000000001111111110100010111000101010010111011001110010101001 '
b00000000000011111111101000101110 (
b11001111110001000101000000101110 )
b0000011001110001 *
b0000011001110001 "
#790
b00000000000000000000011001110001 #
b10101110011111011001010001011100 !
b10101110011111011001010001011100 &
b0000000000001101011010110001011010010111000000111111000111000100 '
b00000000000011010110101100010110 (
b10101110011111011000100100010110 )
b0000101101000110 *
b0000101101000110 "
#800
b00000000000000000000101101000110 #
b10101101110010111100000001011011 !
b10101101110010111100000001011011 &
b0000000000001101010111010110100111001011111001011011011000001101 '
b00000000000011010101110101101001 (
b10101101110010111011001001101001 )
b0000110111110010 *
b0000000011110001 "
#810
b00000000000000000000000011110001 #
b01000100110111100011011110001001 !
b01000100110111100011011110001001 &
b0000000000000101010010111100001101000001111110110101100111101111 '
b00000000000001010100101111000011 (
b01000100110111100011001011000011 )
b0000010011000110 *
b0000010011000110 "
#820
b00000000000000000000010011000110 #
b10100100101011100011001001001001 !
b10100100101011100011001001001001 &
b0000000000001100101010011111011010001000010100001101100100101111 '
b00000000000011001010100111110110 (
b10100100101011100010011111110110 )
b0000101001010011 *
b0000101001010011 "
#830
b00000000000000000000101001010011 #
b11101000001000110011111011010000 !
b11101000001000110011111011010000 &
b0000000000010001110110011111001110110010100100100001011010110000 '
b00000000000100011101100111110011 (
b11101000001000110011000011110011 )
b0000110111011101 *
b0000000011011100 "
#840
b00000000000000000000000011011100 #
b11101011111111101100000011010111 !
b11101011111111101100000011010111 &
b0000000000010010001001011110010000101000111000111101001010110001 '
b00000000000100100010010111100100 (
b11101011111111101011100111100100 )
b0000011011110011 *
b0000011011110011 "
#850
b00000000000000000000011011110011 #
b10101000110001111111110001010001 !
b10101000110001111111110001010001 &
b0000000000001100111110101011000100010110011100111011110011100111 '
b00000000000011001111101010110001 (
b10101000110001111111011110110001 )
b0000010010100000 *
b0000010010100000 "
#860
b00000000000000000000010010100000 #
b01001011001000010010111110010110 !
b01001011001000010010111110010110 &
b0000000000000101110001110000011111101100011000101000111000111010 '
b00000000000001011100011100000111 (
b01001011001000010010001000000111 )
b0000110110001111 *
b0000000010001110 "
#870
b00000000000000000000000010001110 #
b00000110000111010111111100001100 !
b00000110000111010111111100001100 &
b0000000000000000011110000110001011110110110100110000010110010100 '
b00000000000000000111100001100010 (
b00000110000111010111001001100010 )
b0000110010101010 *
b0000110010101010 "
#880
b00000000000000000000110010101010 #
b11100001001011001100111011000010 !
b11100001001011001100111011000010 &
b0000000000010001010100001110000111110000110001000110101010101110 '
b00000000000100010101000011100001 (
b11100001001011001011110111100001 )
b0001000011100001 *
b0000001111100000 "
#890
b00000000000000000000001111100000 #
b01100100010101111110110111001000 !
b01100100010101111110110111001000 &
b0000000000000111101101110110011001111100001111101011000111111000 '
b00000000000001111011011101100110 (
b01100100010101111110010101100110 )
b0000100001100010 *
b0000100001100010 "
#900
b00000000000000000000100001100010 #
b10111011100000100101101001110111 !
b10111011100000100101101001110111 &
b0000000000001110011010110110000011011100110110110000010000010001 '
b00000000000011100110101101100000 (
b10111011100000100100101101100000 )
b0000111100010111 *
b0000001000010110 "
#910
b00000000000000000000001000010110 #
b00011110111100101110110100111101 !
b00011110111100101110110100111101 &
b0000000000000010011000010100010111001011010110110100100110011011 '
b00000000000000100110000101000101 (
b00011110111100101110001001000101 )
b0000101011111000 *
b0000101011111000 "
#920
b00000000000000000000101011111000 #
b00001001000011001101101100010010 !
b00001001000011001101101100010010 &
b0000000000000000101100100010101010000100010001111110011111011110 '
b00000000000000001011001000101010 (
b00001001000011001101010000101010 )
b0000011011101000 *
b0000011011101000 "
#930
b00000000000000000000011011101000 #
b10111111000001010000000001111110 !
b10111111000001010000000001111110 &
b0000000000001110101100000111110000000001010000110111110000010010 '
b00000000000011101011000001111100 (
b10111111000001001111110001111100 )
b0000010000000010 *
b0000010000000010 "
#940
b00000000000000000000010000000010 #
b00110110111001011000000101101101 !
b00110110111001011000000101101101 &
b0000000000000100001110001011011010111100101000000000011111101011 '
b00000000000001000011100010110110 (
b00110110111001010111011010110110 )
b0000101010110111 *
b0000101010110111 "
#950
b00000000000000000000101010110111 #
b00011100110110011110011100111001 !
b00011100110110011110011100111001 &
b0000000000000010001101111111100110111110000011110100000010111111 '
b00000000000000100011011111111001 (
b00011100110110011101110011111001 )
b0000101001000000 *
b0000101001000000 "
#960
b00000000000000000000101001000000 #
b00001111110100101000111100011111 !
b00001111110100101000111100011111 &
b0000000000000001001101110111110011011110101001111000000000101001 '
b00000000000000010011011101111100 (
b00001111110100101000001101111100 )
b0000101110100011 *
b0000101110100011 "
#970
b00000000000000000000101110100011 #
b11101001111010111111011011010011 !
b11101001111010111111011011010011 &
b0000000000010001111111010001001011010111000100001010110111010101 '
b00000000000100011111110100010010 (
b11101001111010111110011100010010 )
b0000111111000001 *
b0000001011000000 "
#980
b00000000000000000000001011000000 #
b01000010110110010010111110000101 !
b01000010110110010010111110000101 &
b0000000000000101001001000000000011000111100110111110001100010011 '
b00000000000001010010010000000000 (
b01000010110110010010010000000000 )
b0000101110000101 *
b0000101110000101 "
#990
b00000000000000000000101110000101 #
b10111100000101001000100001111000 !
b10111100000101001000100001111000 &
b0000000000001110011101101001111010011100110111111001010111001000 '
b00000000000011100111011010011110 (
b10111100000101000111110010011110 )
b0000101111011010 *
b0000101111011010 "
#1000
b00000000000000000000101111011010 #
b00101101110110100101100101011011 !
b00101101110110100101100101011011 &
b0000000000000011100001101010110110101011111011000001010100001101 '
b00000000000000111000011010101101 (
b00101101110110100100111110101101 )
b0000100110101110 *
b0000100110101110 "
#1010
b00000000000000000000100110101110 #
b00100100100010110100101101001001 !
b00100100100010110100101101001001 &
b0000000000000010110011110110101111101110011101001011100000101111 '
b00000000000000101100111101101011 (
b00100100100010110011111001101011 )
b0000110011011110 *
b0000110011011110 "
#1020
b00000000000000000000110011011110 #
b10011111111100101010111000111111 !
b10011111111100101010111000111111 &
b0000000000001100010011001100110000101010010001001010000000001001 '
b00000000000011000100110011001100 (
b10011111111100101010100011001100 )
b0000010101110011 *
b0000010101110011 "
#1030
b00000000000000000000010101110011 #
b00010101000011001010111100101010 !
b00010101000011001010111100101010 &
b0000000000000001100111100110001110110111111011001110110100000110 '
b00000000000000011001111001100011 (
b00010101000011001010010101100011 )
b0000100111000111 *
b0000100111000111 "
#1040
b00000000000000000000100111000111 #
b00101100000101010110001101011000 !
b00101100000101010110001101011000 &
b0000000000000011011000111101100010000001101110110010101111101000 '
b00000000000000110110001111011000 (
b00101100000101010101101111011000 )
b0000011110000000 *
b0000011110000000 "
#1050
b00000000000000000000011110000000 #
b11000011001111110011100010000110 !
b11000011001111110011100010000110 &
b0000000000001111000000111011010011111011110001110000000111001010 '
b00000000000011110000001110110100 (
b11000011001111110010011110110100 )
b0001000011010010 *
b0000001111010001 "
#1060
b00000000000000000000001111010001 #
b11000111000110100000110010001110 !
b11000111000110100000110010001110 &
b0000000000001111010011111001100000010000101111100000101110000010 '
b00000000000011110100111110011000 (
b11000111000110100000011110011000 )
b0000010011110110 *
b0000010011110110 "
#1070
b00000000000000000000010011110110 #
b11001110001011111111001010011100 !
b11001110001011111111001010011100 &
b0000000000001111110110110001010100101100101100110001000110000100 '
b00000000000011111101101100010101 (
b11001110001011111110110000010101 )
b0000011010000111 *
b0000011010000111 "
#1080
b00000000000000000000011010000111 #
b01111101001101011001100111111010 !
b01111101001101011001100111111010 &
b0000000000001001101000001110101110010011001000001111011110110110 '
b00000000000010011010000011101011 (
b01111101001101011000111111101011 )
b0000101000001111 *
b0000101000001111 "
#1090
b00000000000000000000101000001111 #
b10010011011111011011110000100110 !
b10010011011111011011110000100110 &
b0000000000001011010101111001000101011001010100010111100100101010 '
b00000000000010110101011110010001 (
b10010011011111011011010010010001 )
b0000011110010101 *
b0000011110010101 "
#1100
b00000000000000000000011110010101 #
b00111001100101100001011101110011 !
b00111001100101100001011101110011 &
b0000000000000100011011011010101010000001110110110110000000110101 '
b00000000000001000110110110101010 (
b00111001100101100000111110101010 )
b0000011111001001 *
b0000011111001001 "
#1110
b00000000000000000000011111001001 #
b11010001100010111011010010100011 !
b11010001100010111011010010100011 &
b0000000000010000000111010011001010110011011100101000110110000101 '
b00000000000100000001110100110010 (
b11010001100010111010011100110010 )
b0000110101110001 *
b0000000001110000 "
#1120
b00000000000000000000000001110000 #
b10010111100110011010100000101111 !
b10010111100110011010100000101111 &
b0000000000001011101010000111010111100100010011000101101010011001 '
b00000000000010111010100001110101 (
b10010111100110011001100101110101 )
b0000111010111010 *
b0000000110111001 "
#1130
b00000000000000000000000110111001 #
b11011001110100101001001010110011 !
b11011001110100101001001010110011 &
b0000000000010000110000000010001110001011000110000011101011110101 '
b00000000000100001100000000100011 (
b11011001110100101000011100100011 )
b0000101110010000 *
b0000101110010000 "
#1140
b00000000000000000000101110010000 #
b10101111110110000101011001011111 !
b10101111110110000101011001011111 &
b0000000000001101100001011100000011111111101111011010111011101001 '
b00000000000011011000010111000000 (
b10101111110110000100010111000000 )
b0001000010011111 *
b0000001110011110 "
#1150
b00000000000000000000001110011110 #
b00100010001010010000110101000100 !
b00100010001010010000110101000100 &
b0000000000000010101000000111111001110111011101011111011110011100 '
b00000000000000101010000001111110 (
b00100010001010010000011001111110 )
b0000011011000110 *
b0000011011000110 "
#1160
b00000000000000000000011011000110 #
b01111011111110001111110111110111 !
b01111011111110001111110111110111 &
b0000000000001001100010001001001010101101111011100110010010010001 '
b00000000000010011000100010010010 (
b01111011111110001111001010010010 )
b0000101101100101 *
b0000101101100101 "
